Dec 23 15:27:07.071 HYPERVISOR: Release 0.2.18-amd64/Linux (tag 2018033112)
Dec 23 15:27:07.071 HYPERVISOR: Started on IP = 127.0.0.1, TCP port = 36487.
Dec 23 15:27:07.080 HYPERVISOR: exec_cmd: hypervisor version 
Dec 23 15:27:07.080 HYPERVISOR: exec_cmd: hypervisor working_dir /home/davidv7/Documents/ciscoSec/ciscosec/ZoneBasedFirewall2/project-files/dynamips 
Dec 23 15:27:07.080 GENERAL: working_dir=/home/davidv7/Documents/ciscoSec/ciscosec/ZoneBasedFirewall2/project-files/dynamips
Dec 23 15:27:07.081 HYPERVISOR: exec_cmd: ethsw create Ethernetswitch-3 
Dec 23 15:27:08.274 HYPERVISOR: exec_cmd: nio create_udp udp-2b1b6908-2a15-4d49-9fe4-87ec3294b2ac 10031 127.0.0.1 10030 
Dec 23 15:27:08.275 HYPERVISOR: exec_cmd: ethsw add_nio Ethernetswitch-3 udp-2b1b6908-2a15-4d49-9fe4-87ec3294b2ac 
Dec 23 15:27:08.296 HYPERVISOR: exec_cmd: ethsw set_access_port Ethernetswitch-3 udp-2b1b6908-2a15-4d49-9fe4-87ec3294b2ac 1 
Dec 23 15:27:08.371 HYPERVISOR: exec_cmd: nio create_udp udp-0fc5eff8-30e5-4785-be4e-ca2ae9508624 10034 127.0.0.1 10035 
Dec 23 15:27:08.372 HYPERVISOR: exec_cmd: ethsw add_nio Ethernetswitch-3 udp-0fc5eff8-30e5-4785-be4e-ca2ae9508624 
Dec 23 15:27:08.375 HYPERVISOR: exec_cmd: ethsw set_access_port Ethernetswitch-3 udp-0fc5eff8-30e5-4785-be4e-ca2ae9508624 1 
Dec 23 17:12:52.780 HYPERVISOR: exec_cmd: ethsw delete Ethernetswitch-3 
Dec 23 17:12:52.828 HYPERVISOR: exec_cmd: hypervisor stop 
Dec 23 17:12:53.241 HYPERVISOR: Stopped.
Dec 23 17:12:53.241 GENERAL: reset done.
