<svg height="177" width="965"><text fill="#000000" fill-opacity="1.0" font-family="TypeWriter" font-size="10.0" font-weight="bold">Password recovery na fizični napravi:
-&gt; izklop naprave
-&gt; ven vzamemo flash, ki se nahaja na zadnjem delu routerja
-&gt; nazaj vklopimo router
-&gt; router je v "Rommon" načinu delovanja, takrat nazaj vstavimo flash
-&gt; komanda: confreg 0x2142 , da bootamo iz flasha, pri tem se pa izognemo startup konfiguraciji
-&gt; pojavi se prompt 2&gt;, kjer vpišemo reset, kar reboota napravo, ampak ignorira shranjeno konfiguracijo
-&gt; pojavi se niz vprašanj, na katera odgovorimo ne, ali pa z ctrl+c preskočimo celoten proces
-&gt; dobimo prompt za router, postavimo se v enable mode
-&gt; vpišemo copy startup-config running-config(kopiramo NVRAM v spomin)
-&gt; vpišemo show running-conf , pokažejo se nam tako enkriptirana gesla kot nekriptirana, nekriptirana ponovno uporabimo, kriptirana pa izbrišemo in vzpostavimo nova
-&gt; shranimo spremembe z copy running-config startup-config
</text></svg>