Dec 23 15:27:06.952 HYPERVISOR: Release 0.2.18-amd64/Linux (tag 2018033112)
Dec 23 15:27:06.952 HYPERVISOR: Started on IP = 127.0.0.1, TCP port = 51765.
Dec 23 15:27:06.959 HYPERVISOR: exec_cmd: hypervisor version 
Dec 23 15:27:06.960 HYPERVISOR: exec_cmd: hypervisor working_dir /home/davidv7/Documents/ciscoSec/ciscosec/ZoneBasedFirewall2/project-files/dynamips 
Dec 23 15:27:06.960 GENERAL: working_dir=/home/davidv7/Documents/ciscoSec/ciscosec/ZoneBasedFirewall2/project-files/dynamips
Dec 23 15:27:06.960 HYPERVISOR: exec_cmd: ethsw create Ethernetswitch-2 
Dec 23 15:27:08.078 HYPERVISOR: exec_cmd: nio create_udp udp-210e5bef-6753-41ec-b770-30409b7f2f60 10024 127.0.0.1 10025 
Dec 23 15:27:08.078 HYPERVISOR: exec_cmd: ethsw add_nio Ethernetswitch-2 udp-210e5bef-6753-41ec-b770-30409b7f2f60 
Dec 23 15:27:08.095 HYPERVISOR: exec_cmd: ethsw set_access_port Ethernetswitch-2 udp-210e5bef-6753-41ec-b770-30409b7f2f60 1 
Dec 23 15:27:08.186 HYPERVISOR: exec_cmd: nio create_udp udp-54d0160e-6d0a-4417-bfd0-7c2864c5c89d 10029 127.0.0.1 10028 
Dec 23 15:27:08.186 HYPERVISOR: exec_cmd: ethsw add_nio Ethernetswitch-2 udp-54d0160e-6d0a-4417-bfd0-7c2864c5c89d 
Dec 23 15:27:08.196 HYPERVISOR: exec_cmd: ethsw set_access_port Ethernetswitch-2 udp-54d0160e-6d0a-4417-bfd0-7c2864c5c89d 1 
Dec 23 17:12:52.801 HYPERVISOR: exec_cmd: ethsw delete Ethernetswitch-2 
Dec 23 17:12:52.859 HYPERVISOR: exec_cmd: hypervisor stop 
Dec 23 17:12:53.111 HYPERVISOR: Stopped.
Dec 23 17:12:53.111 GENERAL: reset done.
